%YAML 1.1
%TAG !u! tag:unity3d.com,2011:
--- !u!1001 &2869951060567076580
PrefabInstance:
  m_ObjectHideFlags: 0
  serializedVersion: 2
  m_Modification:
    m_TransformParent: {fileID: 0}
    m_Modifications:
    - target: {fileID: -4986243978350006769, guid: 9eb72d5feb2b6da4bb34149ed0b644b0, type: 3}
      propertyPath: type
      value: 3
      objectReference: {fileID: 0}
    - target: {fileID: 301690365247216310, guid: 9eb72d5feb2b6da4bb34149ed0b644b0, type: 3}
      propertyPath: m_SpriteTilingProperty.oldSize.x
      value: 0.43
      objectReference: {fileID: 0}
    - target: {fileID: 301690365247216310, guid: 9eb72d5feb2b6da4bb34149ed0b644b0, type: 3}
      propertyPath: m_SpriteTilingProperty.oldSize.y
      value: 0.36
      objectReference: {fileID: 0}
    - target: {fileID: 1310897611454970660, guid: 9eb72d5feb2b6da4bb34149ed0b644b0, type: 3}
      propertyPath: m_Name
      value: Purple
      objectReference: {fileID: 0}
    - target: {fileID: 1310897611454970661, guid: 9eb72d5feb2b6da4bb34149ed0b644b0, type: 3}
      propertyPath: m_RootOrder
      value: 0
      objectReference: {fileID: 0}
    - target: {fileID: 1310897611454970661, guid: 9eb72d5feb2b6da4bb34149ed0b644b0, type: 3}
      propertyPath: m_LocalPosition.x
      value: 1
      objectReference: {fileID: 0}
    - target: {fileID: 1310897611454970661, guid: 9eb72d5feb2b6da4bb34149ed0b644b0, type: 3}
      propertyPath: m_LocalPosition.y
      value: 0
      objectReference: {fileID: 0}
    - target: {fileID: 1310897611454970661, guid: 9eb72d5feb2b6da4bb34149ed0b644b0, type: 3}
      propertyPath: m_LocalPosition.z
      value: 0
      objectReference: {fileID: 0}
    - target: {fileID: 1310897611454970661, guid: 9eb72d5feb2b6da4bb34149ed0b644b0, type: 3}
      propertyPath: m_LocalRotation.w
      value: 1
      objectReference: {fileID: 0}
    - target: {fileID: 1310897611454970661, guid: 9eb72d5feb2b6da4bb34149ed0b644b0, type: 3}
      propertyPath: m_LocalRotation.x
      value: -0
      objectReference: {fileID: 0}
    - target: {fileID: 1310897611454970661, guid: 9eb72d5feb2b6da4bb34149ed0b644b0, type: 3}
      propertyPath: m_LocalRotation.y
      value: -0
      objectReference: {fileID: 0}
    - target: {fileID: 1310897611454970661, guid: 9eb72d5feb2b6da4bb34149ed0b644b0, type: 3}
      propertyPath: m_LocalRotation.z
      value: -0
      objectReference: {fileID: 0}
    - target: {fileID: 1310897611454970661, guid: 9eb72d5feb2b6da4bb34149ed0b644b0, type: 3}
      propertyPath: m_LocalEulerAnglesHint.x
      value: 0
      objectReference: {fileID: 0}
    - target: {fileID: 1310897611454970661, guid: 9eb72d5feb2b6da4bb34149ed0b644b0, type: 3}
      propertyPath: m_LocalEulerAnglesHint.y
      value: 0
      objectReference: {fileID: 0}
    - target: {fileID: 1310897611454970661, guid: 9eb72d5feb2b6da4bb34149ed0b644b0, type: 3}
      propertyPath: m_LocalEulerAnglesHint.z
      value: 0
      objectReference: {fileID: 0}
    - target: {fileID: 1310897611454970662, guid: 9eb72d5feb2b6da4bb34149ed0b644b0, type: 3}
      propertyPath: m_Sprite
      value: 
      objectReference: {fileID: 3705690165460350062, guid: 8f52ae8c14e08334bb4432959dd44442, type: 3}
    - target: {fileID: 1310897611454970662, guid: 9eb72d5feb2b6da4bb34149ed0b644b0, type: 3}
      propertyPath: m_Color.b
      value: 0.92941177
      objectReference: {fileID: 0}
    - target: {fileID: 1310897611454970662, guid: 9eb72d5feb2b6da4bb34149ed0b644b0, type: 3}
      propertyPath: m_Color.g
      value: 0.32156864
      objectReference: {fileID: 0}
    - target: {fileID: 1310897611454970662, guid: 9eb72d5feb2b6da4bb34149ed0b644b0, type: 3}
      propertyPath: m_Color.r
      value: 0.3254902
      objectReference: {fileID: 0}
    - target: {fileID: 7540433498021074583, guid: 9eb72d5feb2b6da4bb34149ed0b644b0, type: 3}
      propertyPath: m_Sprite
      value: 
      objectReference: {fileID: 3705690165460350062, guid: 8f52ae8c14e08334bb4432959dd44442, type: 3}
    - target: {fileID: 8916196020999775584, guid: 9eb72d5feb2b6da4bb34149ed0b644b0, type: 3}
      propertyPath: m_LocalScale.x
      value: 2.3049636
      objectReference: {fileID: 0}
    - target: {fileID: 8916196020999775584, guid: 9eb72d5feb2b6da4bb34149ed0b644b0, type: 3}
      propertyPath: m_LocalScale.y
      value: 2.7526379
      objectReference: {fileID: 0}
    - target: {fileID: 8916196020999775584, guid: 9eb72d5feb2b6da4bb34149ed0b644b0, type: 3}
      propertyPath: m_LocalPosition.x
      value: 0.0005
      objectReference: {fileID: 0}
    - target: {fileID: 8916196020999775584, guid: 9eb72d5feb2b6da4bb34149ed0b644b0, type: 3}
      propertyPath: m_LocalPosition.y
      value: 0.0062
      objectReference: {fileID: 0}
    m_RemovedComponents: []
  m_SourcePrefab: {fileID: 100100000, guid: 9eb72d5feb2b6da4bb34149ed0b644b0, type: 3}
