%YAML 1.1
%TAG !u! tag:unity3d.com,2011:
--- !u!114 &11400000
MonoBehaviour:
  m_ObjectHideFlags: 0
  m_CorrespondingSourceObject: {fileID: 0}
  m_PrefabInstance: {fileID: 0}
  m_PrefabAsset: {fileID: 0}
  m_GameObject: {fileID: 0}
  m_Enabled: 1
  m_EditorHideFlags: 0
  m_Script: {fileID: 11500000, guid: cdb0586385898fa4eba99debedcdd5f1, type: 3}
  m_Name: SceneManager
  m_EditorClassIdentifier: 
  loadSceneEventListeners:
  - Event: {fileID: 11400000, guid: 789da18d4216c15429e54e35f91b1c90, type: 2}
    Response:
      m_PersistentCalls:
        m_Calls:
        - m_Target: {fileID: 11400000}
          m_TargetAssemblyTypeName: SOSceneManager, Assembly-CSharp
          m_MethodName: StartLoadingScene
          m_Mode: 0
          m_Arguments:
            m_ObjectArgument: {fileID: 0}
            m_ObjectArgumentAssemblyTypeName: UnityEngine.Object, UnityEngine
            m_IntArgument: 0
            m_FloatArgument: 0
            m_StringArgument: 
            m_BoolArgument: 0
          m_CallState: 2
  - Event: {fileID: 11400000, guid: d45b644de156a0d42ae6add804350928, type: 2}
    Response:
      m_PersistentCalls:
        m_Calls:
        - m_Target: {fileID: 11400000}
          m_TargetAssemblyTypeName: SOSceneManager, Assembly-CSharp
          m_MethodName: StartLoadingScene
          m_Mode: 0
          m_Arguments:
            m_ObjectArgument: {fileID: 0}
            m_ObjectArgumentAssemblyTypeName: UnityEngine.Object, UnityEngine
            m_IntArgument: 0
            m_FloatArgument: 0
            m_StringArgument: 
            m_BoolArgument: 0
          m_CallState: 2
  - Event: {fileID: 11400000, guid: 0dd4a61b55c8c7e4c98330031954fdaa, type: 2}
    Response:
      m_PersistentCalls:
        m_Calls:
        - m_Target: {fileID: 11400000}
          m_TargetAssemblyTypeName: SOSceneManager, Assembly-CSharp
          m_MethodName: StartLoadingScene
          m_Mode: 0
          m_Arguments:
            m_ObjectArgument: {fileID: 0}
            m_ObjectArgumentAssemblyTypeName: UnityEngine.Object, UnityEngine
            m_IntArgument: 0
            m_FloatArgument: 0
            m_StringArgument: 
            m_BoolArgument: 0
          m_CallState: 2
  - Event: {fileID: 11400000, guid: 32e3f11e08f3a4b4c84fb85165dfc172, type: 2}
    Response:
      m_PersistentCalls:
        m_Calls:
        - m_Target: {fileID: 11400000}
          m_TargetAssemblyTypeName: SOSceneManager, Assembly-CSharp
          m_MethodName: StartLoadingScene
          m_Mode: 0
          m_Arguments:
            m_ObjectArgument: {fileID: 0}
            m_ObjectArgumentAssemblyTypeName: UnityEngine.Object, UnityEngine
            m_IntArgument: 0
            m_FloatArgument: 0
            m_StringArgument: 
            m_BoolArgument: 0
          m_CallState: 2
  eventListeners:
  - Event: {fileID: 11400000, guid: 597263dffdba71144a2846b6237a87b0, type: 2}
    Response:
      m_PersistentCalls:
        m_Calls:
        - m_Target: {fileID: 11400000}
          m_TargetAssemblyTypeName: SOSceneManager, Assembly-CSharp
          m_MethodName: NowLoadScene
          m_Mode: 1
          m_Arguments:
            m_ObjectArgument: {fileID: 0}
            m_ObjectArgumentAssemblyTypeName: UnityEngine.Object, UnityEngine
            m_IntArgument: 0
            m_FloatArgument: 0
            m_StringArgument: 
            m_BoolArgument: 0
          m_CallState: 2
  allScenes:
  - sceneEnum: 0
    scene:
      m_SceneAsset: {fileID: 102900000, guid: 79f8f98557a0082488acd793240882ea, type: 3}
      m_SceneName: MainScene
  - sceneEnum: 1
    scene:
      m_SceneAsset: {fileID: 102900000, guid: 2cda990e2423bbf4892e6590ba056729, type: 3}
      m_SceneName: GameScene
  - sceneEnum: 2
    scene:
      m_SceneAsset: {fileID: 102900000, guid: 06f1e138be9274c44a38448e68f31758, type: 3}
      m_SceneName: PowerupChoiceScene
  - sceneEnum: 3
    scene:
      m_SceneAsset: {fileID: 102900000, guid: 78e0ea5e44ed9d646ad67d95b0d289be, type: 3}
      m_SceneName: GameOver
  transitionAnimationIn: {fileID: 7933298125946041236, guid: 4ee05c7ed428d6d4fb93b6b40f6008ee, type: 3}
  transitionAnimationOut: {fileID: 0}
