%YAML 1.1
%TAG !u! tag:unity3d.com,2011:
--- !u!1 &5153648243296823181
GameObject:
  m_ObjectHideFlags: 0
  m_CorrespondingSourceObject: {fileID: 0}
  m_PrefabInstance: {fileID: 0}
  m_PrefabAsset: {fileID: 0}
  serializedVersion: 6
  m_Component:
  - component: {fileID: 5153648243296823179}
  - component: {fileID: 5153648243296823178}
  - component: {fileID: 5153648243296823176}
  - component: {fileID: 5153648243296823177}
  m_Layer: 0
  m_Name: Grid
  m_TagString: Untagged
  m_Icon: {fileID: 0}
  m_NavMeshLayer: 0
  m_StaticEditorFlags: 0
  m_IsActive: 1
--- !u!4 &5153648243296823179
Transform:
  m_ObjectHideFlags: 0
  m_CorrespondingSourceObject: {fileID: 0}
  m_PrefabInstance: {fileID: 0}
  m_PrefabAsset: {fileID: 0}
  m_GameObject: {fileID: 5153648243296823181}
  m_LocalRotation: {x: 0, y: 0, z: 0, w: 1}
  m_LocalPosition: {x: 0, y: 0, z: 0}
  m_LocalScale: {x: 1, y: 1, z: 1}
  m_Children: []
  m_Father: {fileID: 0}
  m_RootOrder: 0
  m_LocalEulerAnglesHint: {x: 0, y: 0, z: 0}
--- !u!156049354 &5153648243296823178
Grid:
  m_ObjectHideFlags: 0
  m_CorrespondingSourceObject: {fileID: 0}
  m_PrefabInstance: {fileID: 0}
  m_PrefabAsset: {fileID: 0}
  m_GameObject: {fileID: 5153648243296823181}
  m_Enabled: 1
  m_CellSize: {x: 1, y: 1, z: 1}
  m_CellGap: {x: 0, y: 0, z: 0}
  m_CellLayout: 0
  m_CellSwizzle: 0
--- !u!114 &5153648243296823176
MonoBehaviour:
  m_ObjectHideFlags: 0
  m_CorrespondingSourceObject: {fileID: 0}
  m_PrefabInstance: {fileID: 0}
  m_PrefabAsset: {fileID: 0}
  m_GameObject: {fileID: 5153648243296823181}
  m_Enabled: 1
  m_EditorHideFlags: 0
  m_Script: {fileID: 11500000, guid: 5180a5d47556012419b91e5e6f51b465, type: 3}
  m_Name: 
  m_EditorClassIdentifier: 
  rows: 8
  columns: 8
  prefabs:
  - prefab: {fileID: 3883548900001666496, guid: 41acfc70496465549b49a9b079f82fa5, type: 3}
    type: 0
  - prefab: {fileID: 1310897611454970660, guid: 9eb72d5feb2b6da4bb34149ed0b644b0, type: 3}
    type: 2
  - prefab: {fileID: 3883548900001666496, guid: 8ac8d0388db50c547a8c928f2ce6eb3c, type: 3}
    type: 1
  - prefab: {fileID: 3883548900001666496, guid: a9bd14690e75f23439c9903ae4653b1e, type: 3}
    type: 3
  - prefab: {fileID: 2775939505420835194, guid: 83f959e556608c14b9f428e5437bca1f, type: 3}
    type: 4
  powerUpPrefabs:
  - prefab: {fileID: 7291028643571328487, guid: f6ee57f2297213d4f9ac87acabe703d2, type: 3}
    type: 5
  - prefab: {fileID: 8781295778386129002, guid: 18d1ab8477f1ec34e83007f859e9c040, type: 3}
    type: 6
  powerupManager: {fileID: 11400000, guid: cf5d1545f2fecf54f814d26adead4dbf, type: 2}
  matchEvent: {fileID: 11400000, guid: 3df45d91c78f0894ea077df3e5b6e495, type: 2}
  powerUpProbability: 5
  timer: {fileID: 0}
  exchageDecetionDistance: 0.65
--- !u!114 &5153648243296823177
MonoBehaviour:
  m_ObjectHideFlags: 0
  m_CorrespondingSourceObject: {fileID: 0}
  m_PrefabInstance: {fileID: 0}
  m_PrefabAsset: {fileID: 0}
  m_GameObject: {fileID: 5153648243296823181}
  m_Enabled: 1
  m_EditorHideFlags: 0
  m_Script: {fileID: 11500000, guid: 571f6dfeeabcd50469bea740ac57e33c, type: 3}
  m_Name: 
  m_EditorClassIdentifier: 
